[ {
  "name" : "SMALL_PACKET",
  "price" : 300,
  "category" : "PACKETS"
}, {
  "name" : "MEDIUM_PACKET",
  "price" : 500,
  "category" : "PACKETS"
}, {
  "name" : "BIG_PACKET",
  "price" : 800,
  "category" : "PACKETS"
} ]